^D:\VISUALSTUDIOPROJECT\HOMEWORK18\HOMEWORK18\HOMEWORK18.CPP
D:\VISUALSTUDIOPROJECT\HOMEWORK18\HOMEWORK18\X64\DEBUG\VC143.PDB
D:\VISUALSTUDIOPROJECT\HOMEWORK18\HOMEWORK18\X64\DEBUG\VC143.IDB
D:\VISUALSTUDIOPROJECT\HOMEWORK18\HOMEWORK18\X64\DEBUG\HOMEWORK18.OBJ
